^D:\SOURCE\MULTIVIEWMESHBUILDER\MULTIVIEWMESHBUILDER\MAIN.CPP
D:\SOURCE\MULTIVIEWMESHBUILDER\MULTIVIEWMESHBUILDER\X64\RELEASE\VC120.PDB
D:\SOURCE\MULTIVIEWMESHBUILDER\MULTIVIEWMESHBUILDER\X64\RELEASE\MAIN.OBJ
